// Jest Snapshot v1, https://goo.gl/fbAQLP

exports[`Modal component should render Modal component 1`] = `
"<div className=\\"modal-container\\" onKeyDown={[Function: handleEscape]} tabIndex={0} onTransitionEnd={[Function: transitionEnd]}>
  <div className=\\"modal-background\\" onClick={[Function: handleClose]} />
  <div className=\\"modal\\">
    Children
  </div>
</div>"
`;
